version 1
nodes
  0 "skin01" -1
end
skeleton
time 0
  0   0.000000 0.000000 0.000000 0.007973 3.028940 -0.020657
time 1
  0   0.000000 0.000000 0.000000 -0.094965 3.028940 -0.025157
time 2
  0   0.000000 0.000000 0.000000 -0.375821 3.028940 -0.036918
time 3
  0   0.000000 0.000000 0.000000 -0.792940 3.028940 -0.053639
time 4
  0   0.000000 0.000000 0.000000 -1.304506 3.028940 -0.072917
time 5
  0   0.000000 0.000000 0.000000 1.273229 0.112718 3.049602
time 6
  0   0.000000 0.000000 0.000000 0.698819 0.112718 3.032727
time 7
  0   0.000000 0.000000 0.000000 0.155691 0.112539 3.020864
time 8
  0   0.000000 0.000000 0.000000 -0.314179 0.112539 3.016313
time 9
  0   0.000000 0.000000 0.000000 -0.778962 0.106261 3.023421
time 10
  0   0.000000 0.000000 0.000000 -1.302583 0.090208 3.041216
time 11
  0   0.000000 0.000000 0.000000 1.303710 3.073423 -0.075985
time 12
  0   0.000000 0.000000 0.000000 0.804641 3.097189 -0.049344
time 13
  0   0.000000 0.000000 0.000000 0.389284 3.119251 -0.024850
time 14
  0   0.000000 0.000000 0.000000 0.105103 3.135125 -0.007004
time 15
  0   0.000000 0.000000 0.000000 0.007973 3.028940 -0.020657
end
